Unsupervised learning
…
#Get the shape of the dataset

dim(df)

## [1] 12330    18

#Check for duplicated values

duplicated_rows <- df[duplicated(df),]
duplicated_rows 

## # A tibble: 119 x 18
##    Administrative Administrative_~ Informational Informational_D~ ProductRelated
##             <dbl>            <dbl>         <dbl>            <dbl>          <dbl>
##  1              0                0             0                0              1
##  2              0                0             0                0              1
##  3              0                0             0                0              1
##  4              0                0             0                0              1
##  5              0                0             0                0              1
##  6              0                0             0                0              1
##  7              0                0             0                0              1
##  8              0                0             0                0              1
##  9              0                0             0                0              2
## 10              0                0             0                0              1
## # ... with 109 more rows, and 13 more variables: ProductRelated_Duration <dbl>,
## #   BounceRates <dbl>, ExitRates <dbl>, PageValues <dbl>, SpecialDay <dbl>,
## #   Month <chr>, OperatingSystems <dbl>, Browser <dbl>, Region <dbl>,
## #   TrafficType <dbl>, VisitorType <chr>, Weekend <lgl>, Revenue <lgl>
…
##Dealing with missing values

#Dropping the missing values

df<- na.omit(df)
df

## # A tibble: 12,316 x 18
##    Administrative Administrative_~ Informational Informational_D~ ProductRelated
##             <dbl>            <dbl>         <dbl>            <dbl>          <dbl>
##  1              0                0             0                0              1
##  2              0                0             0                0              2
##  3              0               -1             0               -1              1
##  4              0                0             0                0              2
##  5              0                0             0                0             10
##  6              0                0             0                0             19
##  7              0               -1             0               -1              1
##  8              1               -1             0               -1              1
##  9              0                0             0                0              2
## 10              0                0             0                0              3
## # ... with 12,306 more rows, and 13 more variables:
## #   ProductRelated_Duration <dbl>, BounceRates <dbl>, ExitRates <dbl>,
## #   PageValues <dbl>, SpecialDay <dbl>, Month <chr>, OperatingSystems <dbl>,
## #   Browser <dbl>, Region <dbl>, TrafficType <dbl>, VisitorType <chr>,
## #   Weekend <lgl>, Revenue <lgl>
…
##Dropping duplicates

df <- df[!duplicated(df), ]
df

## # A tibble: 12,199 x 18
##    Administrative Administrative_~ Informational Informational_D~ ProductRelated
##             <dbl>            <dbl>         <dbl>            <dbl>          <dbl>
##  1              0                0             0                0              1
##  2              0                0             0                0              2
##  3              0               -1             0               -1              1
##  4              0                0             0                0              2
##  5              0                0             0                0             10
##  6              0                0             0                0             19
##  7              0               -1             0               -1              1
##  8              1               -1             0               -1              1
##  9              0                0             0                0              2
## 10              0                0             0                0              3
## # ... with 12,189 more rows, and 13 more variables:
## #   ProductRelated_Duration <dbl>, BounceRates <dbl>, ExitRates <dbl>,
## #   PageValues <dbl>, SpecialDay <dbl>, Month <chr>, OperatingSystems <dbl>,
## #   Browser <dbl>, Region <dbl>, TrafficType <dbl>, VisitorType <chr>,
## #   Weekend <lgl>, Revenue <lgl>
…
